[gd_resource type="AtlasTexture" load_steps=2 format=2]

[sub_resource type="StreamTexture" id=1]
flags = 4
load_path = "res://.import/spritemap.png-a7038ff033eb0a98af92c5616c6fc691.stex"

[resource]
flags = 4
atlas = SubResource( 1 )
region = Rect2( 0, 176, 16, 16 )
