[gd_scene load_steps=3 format=2]

[ext_resource path="res://Assets/Terrain/StairsDown.tres" type="Texture" id=1]
[ext_resource path="res://Scripts/Exit.cs" type="Script" id=2]


[node name="Exit" type="Sprite"]
texture = ExtResource( 1 )
script = ExtResource( 2 )
