[gd_scene load_steps=4 format=2]

[ext_resource path="res://Scripts/Water.cs" type="Script" id=1]
[ext_resource path="res://Assets/Terrain/Water.tres" type="Texture" id=2]

[sub_resource type="RectangleShape2D" id=1]
extents = Vector2( 8, 8 )

[node name="Water" type="KinematicBody2D"]
script = ExtResource( 1 )

[node name="CollisionShape2D" type="CollisionShape2D" parent="."]
shape = SubResource( 1 )

[node name="Sprite" type="Sprite" parent="."]
texture = ExtResource( 2 )
